%YAML 1.1
%TAG !u! tag:unity3d.com,2011:
--- !u!114 &11400000
MonoBehaviour:
  m_ObjectHideFlags: 0
  m_CorrespondingSourceObject: {fileID: 0}
  m_PrefabInstance: {fileID: 0}
  m_PrefabAsset: {fileID: 0}
  m_GameObject: {fileID: 0}
  m_Enabled: 1
  m_EditorHideFlags: 0
  m_Script: {fileID: 11500000, guid: cbf05c93c05a9b744a602d1348cc5a75, type: 3}
  m_Name: Bottom
  m_EditorClassIdentifier: 
  height: -19
  enemys:
  - tag: Angler
    amount: 5
  - tag: Seacat
    amount: 5
