%YAML 1.1
%TAG !u! tag:unity3d.com,2011:
--- !u!1001 &2739522856729522074
PrefabInstance:
  m_ObjectHideFlags: 0
  serializedVersion: 2
  m_Modification:
    m_TransformParent: {fileID: 0}
    m_Modifications:
    - target: {fileID: 3612381247388379472, guid: 4406263bf10848245bc8e64e6a838e2e,
        type: 3}
      propertyPath: m_RootOrder
      value: 0
      objectReference: {fileID: 0}
    - target: {fileID: 3612381247388379472, guid: 4406263bf10848245bc8e64e6a838e2e,
        type: 3}
      propertyPath: m_LocalScale.x
      value: 1
      objectReference: {fileID: 0}
    - target: {fileID: 3612381247388379472, guid: 4406263bf10848245bc8e64e6a838e2e,
        type: 3}
      propertyPath: m_LocalScale.y
      value: 1
      objectReference: {fileID: 0}
    - target: {fileID: 3612381247388379472, guid: 4406263bf10848245bc8e64e6a838e2e,
        type: 3}
      propertyPath: m_LocalScale.z
      value: 1
      objectReference: {fileID: 0}
    - target: {fileID: 3612381247388379472, guid: 4406263bf10848245bc8e64e6a838e2e,
        type: 3}
      propertyPath: m_LocalPosition.x
      value: 1.6200027
      objectReference: {fileID: 0}
    - target: {fileID: 3612381247388379472, guid: 4406263bf10848245bc8e64e6a838e2e,
        type: 3}
      propertyPath: m_LocalPosition.y
      value: -7.5
      objectReference: {fileID: 0}
    - target: {fileID: 3612381247388379472, guid: 4406263bf10848245bc8e64e6a838e2e,
        type: 3}
      propertyPath: m_LocalPosition.z
      value: 0
      objectReference: {fileID: 0}
    - target: {fileID: 3612381247388379472, guid: 4406263bf10848245bc8e64e6a838e2e,
        type: 3}
      propertyPath: m_LocalRotation.w
      value: 1
      objectReference: {fileID: 0}
    - target: {fileID: 3612381247388379472, guid: 4406263bf10848245bc8e64e6a838e2e,
        type: 3}
      propertyPath: m_LocalRotation.x
      value: -0
      objectReference: {fileID: 0}
    - target: {fileID: 3612381247388379472, guid: 4406263bf10848245bc8e64e6a838e2e,
        type: 3}
      propertyPath: m_LocalRotation.y
      value: -0
      objectReference: {fileID: 0}
    - target: {fileID: 3612381247388379472, guid: 4406263bf10848245bc8e64e6a838e2e,
        type: 3}
      propertyPath: m_LocalRotation.z
      value: -0
      objectReference: {fileID: 0}
    - target: {fileID: 3612381247388379472, guid: 4406263bf10848245bc8e64e6a838e2e,
        type: 3}
      propertyPath: m_LocalEulerAnglesHint.x
      value: 0
      objectReference: {fileID: 0}
    - target: {fileID: 3612381247388379472, guid: 4406263bf10848245bc8e64e6a838e2e,
        type: 3}
      propertyPath: m_LocalEulerAnglesHint.y
      value: 0
      objectReference: {fileID: 0}
    - target: {fileID: 3612381247388379472, guid: 4406263bf10848245bc8e64e6a838e2e,
        type: 3}
      propertyPath: m_LocalEulerAnglesHint.z
      value: 0
      objectReference: {fileID: 0}
    - target: {fileID: 3612381247388379484, guid: 4406263bf10848245bc8e64e6a838e2e,
        type: 3}
      propertyPath: m_Name
      value: bonus (2)
      objectReference: {fileID: 0}
    - target: {fileID: 3612381247388379484, guid: 4406263bf10848245bc8e64e6a838e2e,
        type: 3}
      propertyPath: m_IsActive
      value: 1
      objectReference: {fileID: 0}
    - target: {fileID: 3612381247388379486, guid: 4406263bf10848245bc8e64e6a838e2e,
        type: 3}
      propertyPath: m_Enabled
      value: 1
      objectReference: {fileID: 0}
    - target: {fileID: 3612381247388379486, guid: 4406263bf10848245bc8e64e6a838e2e,
        type: 3}
      propertyPath: m_Materials.Array.data[0]
      value: 
      objectReference: {fileID: 2100000, guid: b57886371b3bb364989040874f1bbf38, type: 2}
    m_RemovedComponents:
    - {fileID: 3612381247388379487, guid: 4406263bf10848245bc8e64e6a838e2e, type: 3}
  m_SourcePrefab: {fileID: 100100000, guid: 4406263bf10848245bc8e64e6a838e2e, type: 3}
