%YAML 1.1
%TAG !u! tag:unity3d.com,2011:
--- !u!1 &6330513340404336911
GameObject:
  m_ObjectHideFlags: 0
  m_CorrespondingSourceObject: {fileID: 0}
  m_PrefabInstance: {fileID: 0}
  m_PrefabAsset: {fileID: 0}
  serializedVersion: 6
  m_Component:
  - component: {fileID: 4551593541347810431}
  - component: {fileID: 7071883070765590805}
  - component: {fileID: 6720776679968836987}
  m_Layer: 8
  m_Name: Perfect 1
  m_TagString: Perfect
  m_Icon: {fileID: 0}
  m_NavMeshLayer: 0
  m_StaticEditorFlags: 0
  m_IsActive: 1
--- !u!4 &4551593541347810431
Transform:
  m_ObjectHideFlags: 0
  m_CorrespondingSourceObject: {fileID: 0}
  m_PrefabInstance: {fileID: 0}
  m_PrefabAsset: {fileID: 0}
  m_GameObject: {fileID: 6330513340404336911}
  m_LocalRotation: {x: 0, y: 0, z: 0, w: 1}
  m_LocalPosition: {x: -13.430641, y: 20.340034, z: -17.656097}
  m_LocalScale: {x: 1, y: 1, z: 1}
  m_Children:
  - {fileID: 850079702530069181}
  m_Father: {fileID: 0}
  m_RootOrder: 0
  m_LocalEulerAnglesHint: {x: 0, y: 0, z: 0}
--- !u!54 &7071883070765590805
Rigidbody:
  m_ObjectHideFlags: 0
  m_CorrespondingSourceObject: {fileID: 0}
  m_PrefabInstance: {fileID: 0}
  m_PrefabAsset: {fileID: 0}
  m_GameObject: {fileID: 6330513340404336911}
  serializedVersion: 2
  m_Mass: 0.2
  m_Drag: 1
  m_AngularDrag: 0.05
  m_UseGravity: 1
  m_IsKinematic: 0
  m_Interpolate: 0
  m_Constraints: 120
  m_CollisionDetection: 0
--- !u!114 &6720776679968836987
MonoBehaviour:
  m_ObjectHideFlags: 0
  m_CorrespondingSourceObject: {fileID: 0}
  m_PrefabInstance: {fileID: 0}
  m_PrefabAsset: {fileID: 0}
  m_GameObject: {fileID: 6330513340404336911}
  m_Enabled: 1
  m_EditorHideFlags: 0
  m_Script: {fileID: 11500000, guid: e181d38303e8fce419edde18ce5c3be4, type: 3}
  m_Name: 
  m_EditorClassIdentifier: 
  maxSpeed: 3
  acceleration: 5
  agroRadius: 15
  damage: 3
  maxHealth: 3
  OnDie:
    m_PersistentCalls:
      m_Calls: []
--- !u!1001 &7515496498669222589
PrefabInstance:
  m_ObjectHideFlags: 0
  serializedVersion: 2
  m_Modification:
    m_TransformParent: {fileID: 4551593541347810431}
    m_Modifications:
    - target: {fileID: 454520327239719326, guid: 8dfb3b07f39599a459f7ea9ce7dff159,
        type: 3}
      propertyPath: m_Layer
      value: 8
      objectReference: {fileID: 0}
    - target: {fileID: 1321715050441047189, guid: 8dfb3b07f39599a459f7ea9ce7dff159,
        type: 3}
      propertyPath: m_Layer
      value: 8
      objectReference: {fileID: 0}
    - target: {fileID: 4115418282931533902, guid: 8dfb3b07f39599a459f7ea9ce7dff159,
        type: 3}
      propertyPath: m_Layer
      value: 8
      objectReference: {fileID: 0}
    - target: {fileID: 5219436634550742853, guid: 8dfb3b07f39599a459f7ea9ce7dff159,
        type: 3}
      propertyPath: m_Layer
      value: 8
      objectReference: {fileID: 0}
    - target: {fileID: 6150238766964386154, guid: 8dfb3b07f39599a459f7ea9ce7dff159,
        type: 3}
      propertyPath: m_Layer
      value: 8
      objectReference: {fileID: 0}
    - target: {fileID: 7169869984465545216, guid: 8dfb3b07f39599a459f7ea9ce7dff159,
        type: 3}
      propertyPath: m_RootOrder
      value: 0
      objectReference: {fileID: 0}
    - target: {fileID: 7169869984465545216, guid: 8dfb3b07f39599a459f7ea9ce7dff159,
        type: 3}
      propertyPath: m_LocalPosition.x
      value: 0
      objectReference: {fileID: 0}
    - target: {fileID: 7169869984465545216, guid: 8dfb3b07f39599a459f7ea9ce7dff159,
        type: 3}
      propertyPath: m_LocalPosition.y
      value: 0
      objectReference: {fileID: 0}
    - target: {fileID: 7169869984465545216, guid: 8dfb3b07f39599a459f7ea9ce7dff159,
        type: 3}
      propertyPath: m_LocalPosition.z
      value: 0
      objectReference: {fileID: 0}
    - target: {fileID: 7169869984465545216, guid: 8dfb3b07f39599a459f7ea9ce7dff159,
        type: 3}
      propertyPath: m_LocalRotation.w
      value: 0.7071068
      objectReference: {fileID: 0}
    - target: {fileID: 7169869984465545216, guid: 8dfb3b07f39599a459f7ea9ce7dff159,
        type: 3}
      propertyPath: m_LocalRotation.x
      value: 0
      objectReference: {fileID: 0}
    - target: {fileID: 7169869984465545216, guid: 8dfb3b07f39599a459f7ea9ce7dff159,
        type: 3}
      propertyPath: m_LocalRotation.y
      value: -0.7071068
      objectReference: {fileID: 0}
    - target: {fileID: 7169869984465545216, guid: 8dfb3b07f39599a459f7ea9ce7dff159,
        type: 3}
      propertyPath: m_LocalRotation.z
      value: 0
      objectReference: {fileID: 0}
    - target: {fileID: 7169869984465545216, guid: 8dfb3b07f39599a459f7ea9ce7dff159,
        type: 3}
      propertyPath: m_LocalEulerAnglesHint.x
      value: 0
      objectReference: {fileID: 0}
    - target: {fileID: 7169869984465545216, guid: 8dfb3b07f39599a459f7ea9ce7dff159,
        type: 3}
      propertyPath: m_LocalEulerAnglesHint.y
      value: -90
      objectReference: {fileID: 0}
    - target: {fileID: 7169869984465545216, guid: 8dfb3b07f39599a459f7ea9ce7dff159,
        type: 3}
      propertyPath: m_LocalEulerAnglesHint.z
      value: 0
      objectReference: {fileID: 0}
    - target: {fileID: 7169869984465545243, guid: 8dfb3b07f39599a459f7ea9ce7dff159,
        type: 3}
      propertyPath: m_Name
      value: perfect
      objectReference: {fileID: 0}
    - target: {fileID: 7721993824938858992, guid: 8dfb3b07f39599a459f7ea9ce7dff159,
        type: 3}
      propertyPath: m_Layer
      value: 8
      objectReference: {fileID: 0}
    - target: {fileID: 8019192128465205661, guid: 8dfb3b07f39599a459f7ea9ce7dff159,
        type: 3}
      propertyPath: m_Layer
      value: 8
      objectReference: {fileID: 0}
    m_RemovedComponents:
    - {fileID: 7169869984465545220, guid: 8dfb3b07f39599a459f7ea9ce7dff159, type: 3}
    - {fileID: 7169869984465545217, guid: 8dfb3b07f39599a459f7ea9ce7dff159, type: 3}
  m_SourcePrefab: {fileID: 100100000, guid: 8dfb3b07f39599a459f7ea9ce7dff159, type: 3}
--- !u!4 &850079702530069181 stripped
Transform:
  m_CorrespondingSourceObject: {fileID: 7169869984465545216, guid: 8dfb3b07f39599a459f7ea9ce7dff159,
    type: 3}
  m_PrefabInstance: {fileID: 7515496498669222589}
  m_PrefabAsset: {fileID: 0}
